%YAML 1.1
%TAG !u! tag:unity3d.com,2011:
--- !u!1001 &3807261354261581580
PrefabInstance:
  m_ObjectHideFlags: 0
  serializedVersion: 2
  m_Modification:
    m_TransformParent: {fileID: 0}
    m_Modifications:
    - target: {fileID: 608371627623520834, guid: 546536983a0544649a0372d4121d98b9, type: 3}
      propertyPath: m_Sprite
      value: 
      objectReference: {fileID: 21300000, guid: dbd10bb108bb8cb45973e2ededed2164, type: 3}
    - target: {fileID: 3891070881459527552, guid: 546536983a0544649a0372d4121d98b9, type: 3}
      propertyPath: bulletPrefab
      value: 
      objectReference: {fileID: 4474335554214821978, guid: 39736bba06ba6bb41b74b877cf5ad7ec, type: 3}
    - target: {fileID: 3891070881459527552, guid: 546536983a0544649a0372d4121d98b9, type: 3}
      propertyPath: shootDistance
      value: 4
      objectReference: {fileID: 0}
    - target: {fileID: 3891070881459527552, guid: 546536983a0544649a0372d4121d98b9, type: 3}
      propertyPath: bulletSplashRadius
      value: 2
      objectReference: {fileID: 0}
    - target: {fileID: 4124533638254665707, guid: 546536983a0544649a0372d4121d98b9, type: 3}
      propertyPath: m_Name
      value: Tower 3
      objectReference: {fileID: 0}
    - target: {fileID: 6948324495679076526, guid: 546536983a0544649a0372d4121d98b9, type: 3}
      propertyPath: m_RootOrder
      value: 0
      objectReference: {fileID: 0}
    - target: {fileID: 6948324495679076526, guid: 546536983a0544649a0372d4121d98b9, type: 3}
      propertyPath: m_LocalPosition.x
      value: 0
      objectReference: {fileID: 0}
    - target: {fileID: 6948324495679076526, guid: 546536983a0544649a0372d4121d98b9, type: 3}
      propertyPath: m_LocalPosition.y
      value: 0
      objectReference: {fileID: 0}
    - target: {fileID: 6948324495679076526, guid: 546536983a0544649a0372d4121d98b9, type: 3}
      propertyPath: m_LocalPosition.z
      value: 0
      objectReference: {fileID: 0}
    - target: {fileID: 6948324495679076526, guid: 546536983a0544649a0372d4121d98b9, type: 3}
      propertyPath: m_LocalRotation.w
      value: 1
      objectReference: {fileID: 0}
    - target: {fileID: 6948324495679076526, guid: 546536983a0544649a0372d4121d98b9, type: 3}
      propertyPath: m_LocalRotation.x
      value: 0
      objectReference: {fileID: 0}
    - target: {fileID: 6948324495679076526, guid: 546536983a0544649a0372d4121d98b9, type: 3}
      propertyPath: m_LocalRotation.y
      value: 0
      objectReference: {fileID: 0}
    - target: {fileID: 6948324495679076526, guid: 546536983a0544649a0372d4121d98b9, type: 3}
      propertyPath: m_LocalRotation.z
      value: 0
      objectReference: {fileID: 0}
    - target: {fileID: 6948324495679076526, guid: 546536983a0544649a0372d4121d98b9, type: 3}
      propertyPath: m_LocalEulerAnglesHint.x
      value: 0
      objectReference: {fileID: 0}
    - target: {fileID: 6948324495679076526, guid: 546536983a0544649a0372d4121d98b9, type: 3}
      propertyPath: m_LocalEulerAnglesHint.y
      value: 0
      objectReference: {fileID: 0}
    - target: {fileID: 6948324495679076526, guid: 546536983a0544649a0372d4121d98b9, type: 3}
      propertyPath: m_LocalEulerAnglesHint.z
      value: 0
      objectReference: {fileID: 0}
    m_RemovedComponents: []
  m_SourcePrefab: {fileID: 100100000, guid: 546536983a0544649a0372d4121d98b9, type: 3}
